id;address;birth_date;profile_photo;user_id;hospital_doctor_id;hospital_patient_id
1;Gateway Shirt;2021-02-04;Barbados Dollar object-oriented Usability;1;1;1
2;Borders;2021-02-04;TCP Triple-buffered;2;1;1
3;drive;2021-02-04;methodical bypass matrix;3;1;1
4;front-end Avon;2021-02-04;Inlet Human connect;4;1;1
5;circuit Music;2021-02-04;national;5;2;1
6;Global Car;2021-02-04;B2C matrix;6;3;1
7;Roads Rubber;2021-02-04;web-enabled;7;4;1
8;Balboa US Dollar Sleek Metal Shirt;2021-02-05;complexity Intelligent Wooden Shoes holistic;8;1;1
9;productize;2021-02-04;Vision-oriented EXE copying;9;1;2
10;Developer;2021-02-04;Armenian Dram Arkansas;10;1;3
11;Developer;2021-02-04;Armenian Dram Arkansas;11;1;4
